\relax 
\citation{goldberger,tchetgen_tchetgen,aragon}
\citation{kraut,vittinghoff,woodbridge}
\citation{onap}
\citation{teeple}
\citation{hussey}
\bibdata{demonstration}
\bibcite{goldberger}{{1}{}{{}}{{}}}
\bibcite{tchetgen_tchetgen}{{2}{}{{}}{{}}}
\bibcite{aragon}{{3}{}{{}}{{}}}
\bibcite{kraut}{{4}{}{{}}{{}}}
\bibcite{vittinghoff}{{5}{}{{}}{{}}}
\bibcite{woodbridge}{{6}{}{{}}{{}}}
\bibcite{onap}{{7}{}{{}}{{}}}
\bibcite{teeple}{{8}{}{{}}{{}}}
\bibcite{hussey}{{9}{}{{}}{{}}}
\bibstyle{yama}
\providecommand\NAT@force@numbers{}\NAT@force@numbers
